https://gitlab.com/ArneS11/testdata/-/raw/main/mondrian-1.jpg,1
https://gitlab.com/ArneS11/testdata/-/raw/main/mondrian-2.jpg,2
https://gitlab.com/ArneS11/testdata/-/raw/main/mondrian-3.jpg,3
https://gitlab.com/ArneS11/testdata/-/raw/main/mondrian-4.jpg,4
https://gitlab.com/ArneS11/testdata/-/raw/main/mondrian-5.jpg,5
https://gitlab.com/ArneS11/testdata/-/raw/main/mondrian-6.jpg,6
https://gitlab.com/ArneS11/testdata/-/raw/main/mondrian-7.jpg,7
https://gitlab.com/ArneS11/testdata/-/raw/main/mondrian-8.jpg,8
https://gitlab.com/ArneS11/testdata/-/raw/main/mondrian-9.jpg,9
https://gitlab.com/ArneS11/testdata/-/raw/main/mondrian-10.jpg,10
https://gitlab.com/ArneS11/testdata/-/raw/main/mondrian-11.jpg,11
https://gitlab.com/ArneS11/testdata/-/raw/main/mondrian-12.jpg,12
https://gitlab.com/ArneS11/testdata/-/raw/main/mondrian-13.jpg,13
https://gitlab.com/ArneS11/testdata/-/raw/main/mondrian-14.jpg,14
https://gitlab.com/ArneS11/testdata/-/raw/main/mondrian-15.jpg,15
https://gitlab.com/ArneS11/testdata/-/raw/main/mondrian-16.jpg,16
